<svg xmlns="http://www.w3.org/2000/svg" id="Layer_1" viewBox="0 0 517.8 120.4">
  <style>
    .st0{fill:#F5F5F5;}
  </style>
  <path d="M296.9 25c-1.4 0-2.6.6-3.4 1.7-.8 1.1-1.4 2.6-1.6 4.4l.1.1h9.6v-.7c0-1.7-.4-3-1.2-4-.8-1-1.9-1.5-3.5-1.5m-134.2 5H156v12.5h6.7c2.2 0 3.9-.6 5.1-1.8 1.2-1.2 1.8-2.8 1.8-4.6 0-1.8-.6-3.2-1.8-4.4-1.2-1.2-2.9-1.7-5.1-1.7" class="st0"/>
  <path d="M135.5 58.4h213.6V.2H135.5v58.2zm37.8-13.3c-2.6 2.3-6.2 3.4-10.7 3.4h-18.8v-4.7l4.2-.8V15l-4.2-.8V9.5h29.6v9.9h-6l-.3-3.9H156v8.4h6.7c4.5 0 8.1 1.1 10.7 3.3 2.6 2.2 3.9 5.1 3.9 8.8 0 3.8-1.3 6.8-4 9.1m40.2-20.9l-4.2.8v18l4.2.8v4.7h-15.7v-4.7l3.7-.8V30.9h-.2L192 48.5h-12v-4.7l4.2-.8V25l-4.2-.8v-4.7h15.8v4.7l-3.8.8v12.1h.2l9.4-17.6h12v4.7zm25 22.5c-2.3 1.6-5.3 2.3-9.1 2.3-3.3 0-6.1-.8-8.5-2.3-2.4-1.5-3.5-3.8-3.4-6.6v-.2h7.6c0 1 .4 1.8 1.2 2.5.8.7 2 1 3.5 1 1.4 0 2.5-.3 3.2-1 .7-.7 1.1-1.6 1.1-2.6 0-1.3-.4-2.2-1.1-2.7-.7-.6-1.8-.9-3.3-.9h-4.2v-5h4.2c1.3 0 2.3-.3 2.9-.8.6-.6.9-1.3.9-2.4 0-.9-.3-1.7-.9-2.4s-1.6-1-2.9-1c-1.3 0-2.3.3-3.1.9-.8.6-1.2 1.3-1.2 2.3h-7.6l-.1-.2c-.1-2.6.9-4.7 3.2-6.3 2.2-1.6 5-2.4 8.3-2.4 3.7 0 6.7.7 8.8 2.2 2.2 1.5 3.2 3.5 3.2 6.2 0 1.3-.4 2.5-1.2 3.6-.8 1.1-1.9 1.9-3.3 2.6 1.6.6 2.8 1.4 3.7 2.6.8 1.1 1.3 2.5 1.3 4.2.3 2.7-.8 4.9-3.2 6.4m41.4-22.5l-4.2.8v18l4.2.8v4.7h-15.4v-4.7l3.3-.8v-5.8h-9.5V43l3.4.8v4.7h-15.4v-4.7l4.2-.8V25l-4.2-.8v-4.7h15.4v4.7l-3.4.8v6.2h9.5V25l-3.3-.8v-4.7h15.3v4.7zm29.3 12.1h-17.3l-.1.2c.1 1.9.8 3.5 1.9 4.7 1.1 1.2 2.7 1.8 4.6 1.8 1.7 0 3.2-.2 4.3-.5 1.1-.3 2.4-.9 3.8-1.6l2.1 4.8c-1.2.9-2.7 1.7-4.6 2.4-1.9.6-4 1-6.4 1-4.2 0-7.5-1.3-10-4s-3.8-6.1-3.8-10.2v-1.1c0-4.3 1.2-7.8 3.5-10.6 2.4-2.8 5.5-4.2 9.5-4.2 3.9 0 6.9 1.2 9.1 3.5 2.2 2.4 3.2 5.5 3.2 9.6v4.2zm25.8 9.8c-2.3 2-5.1 3-8.5 3-4.3 0-7.7-1.4-10-4.1-2.3-2.7-3.5-6.2-3.5-10.5v-.8c0-4.3 1.2-7.8 3.6-10.5 2.4-2.8 5.8-4.1 10.3-4.1 2.3 0 4.4.3 6.3 1 1.9.7 3.4 1.7 4.6 2.9l.1 7.7h-6.4l-1.3-4.5c-.4-.3-.9-.6-1.4-.8-.6-.2-1.2-.3-2-.3-2.2 0-3.8.8-4.7 2.4-.9 1.6-1.4 3.7-1.4 6.2v.8c0 2.6.4 4.7 1.3 6.3.8 1.6 2.3 2.4 4.4 2.4 1.4 0 2.5-.4 3.4-1.2.8-.8 1.3-1.9 1.3-3.3h7.1l.1.2c.1 2.8-1 5.2-3.3 7.2M135.5 64.3v56.1H313v-3.5l3.8-.8V87l-4.2-.8v-4.7H324l.4 3.4c.9-1.3 1.9-2.2 3.1-2.9 1.2-.7 2.6-1 4.2-1 3.6 0 6.4 1.4 8.4 4.2 2 2.8 3 6.5 3 11.1v.6c0 4.3-1 7.7-3 10.3-2 2.6-4.8 3.9-8.3 3.9-1.5 0-2.9-.3-4-.8-1.2-.6-2.2-1.4-3-2.5v8.4l3.8.8v3.5h21l.7-4.5c.3 0 .5.1.8.1.3 0 .5.1.7.1 1.3 0 2.3-.3 3-1 .7-.6 1.2-1.4 1.6-2.4l.9-2.2-9.2-23.9-2.7-.4v-4.7h14.2v4.7l-3.2.5 4 11.6.4 2.1h.2l4.6-13.7-3.3-.5v-4.7h14.2v4.7l-2.7.4-10.7 28.2c-.8 2.1-2 3.8-3.4 5.3-.1.1-.3.2-.4.3h118.3V117l3.8-.8V87l-4.2-.8v-4.7h11.4l.4 3.4c.9-1.3 1.9-2.2 3.1-2.9 1.2-.7 2.6-1 4.2-1 3.6 0 6.4 1.4 8.4 4.2 2 2.8 3 6.5 3 11.1v.6c0 4.3-1 7.7-3 10.3-2 2.6-4.8 3.9-8.3 3.9-1.5 0-2.9-.3-4-.8-1.2-.6-2.2-1.4-3-2.5v8.4l3.8.8v3.5h25.1V64.3H135.5zm45.2 46.2h-15.5v-4.7l2.2-.3-7.3-11h-4.6V105l4 .8v4.7h-15.9v-4.7l4.2-.8V77l-4.2-.8v-4.7h15.9v4.7l-4 .8v10.4h3.5l7.3-10.5c1.6-2.2 2.9-3.7 4.1-4.5 1.2-.8 2.8-1.3 4.8-1.3.9 0 1.8.1 2.5.4.8.3 1.5.6 2.2 1l-1.3 5.9c-.6-.1-1-.2-1.2-.3-.2 0-.5-.1-.8-.1-.8 0-1.6.2-2.3.7-.7.5-1.5 1.3-2.5 2.6l-6.1 8.4 10.8 15.5 4.1.7v4.6zm29-14.2c0 4.4-1.2 7.9-3.6 10.7-2.4 2.7-5.8 4.1-10 4.1-4.3 0-7.7-1.4-10.1-4.1-2.4-2.7-3.6-6.3-3.6-10.7v-.6c0-4.3 1.2-7.9 3.6-10.6 2.4-2.8 5.8-4.1 10-4.1 4.3 0 7.6 1.4 10.1 4.1 2.4 2.8 3.6 6.3 3.6 10.6v.6zm37.5-10.1l-4.2.8v18l4.2.8v4.7h-15.4v-4.7l3.3-.8v-5.8h-9.5v5.8l3.4.8v4.7h-15.4v-4.7l4.2-.8V87l-4.2-.8v-4.7H229v4.7l-3.4.8v6.2h9.5V87l-3.3-.8v-4.7h15.3v4.7zm25.9 21.9c-2.3 2-5.1 3-8.5 3-4.3 0-7.7-1.4-10-4.1-2.3-2.7-3.5-6.2-3.5-10.5v-.8c0-4.3 1.2-7.8 3.6-10.5 2.4-2.8 5.8-4.1 10.3-4.1 2.3 0 4.4.3 6.3 1 1.9.7 3.4 1.7 4.6 2.9l.1 7.7h-6.3l-1.3-4.5c-.4-.3-.9-.6-1.4-.8-.6-.2-1.2-.3-2-.3-2.2 0-3.8.8-4.7 2.4-.9 1.6-1.4 3.7-1.4 6.2v.8c0 2.6.4 4.7 1.3 6.3.8 1.6 2.3 2.4 4.4 2.4 1.4 0 2.5-.4 3.3-1.2.8-.8 1.3-1.9 1.3-3.3h7.1l.1.2c.1 2.8-1 5.2-3.3 7.2M310 91.4h-6l-.3-3.9h-5V105l4.2.8v4.7h-16.2v-4.7l4.2-.8V87.5H286l-.3 3.9h-6v-9.9H310v9.9zm101.4 19.1h-10.7l-6.3-10.9h-3v5.4l3.6.8v4.7h-15.5v-4.7l4.2-.8V87l-4.2-.8v-4.7H395v4.7l-3.6.8v5.5h2.7l4.3-6.4c1.1-1.7 2.2-2.9 3.4-3.8 1.2-.8 2.7-1.3 4.5-1.3.9 0 1.7.1 2.4.4.7.3 1.4.6 2.1 1l-1.3 5.4c-.5-.1-.9-.2-1-.3-.1 0-.4-.1-.7-.1-.5 0-1.1.2-1.7.6-.6.4-1.1.9-1.5 1.6l-3.8 5.5 6.7 10 3.9.6v4.8zm32.9-19.1h-6l-.3-3.9h-5V105l4.2.8v4.7H421v-4.7l4.2-.8V87.5h-4.8l-.3 3.9h-6v-9.9h30.3v9.9zm29.8 4.9c0 4.4-1.2 7.9-3.6 10.7-2.4 2.7-5.8 4.1-10 4.1-4.3 0-7.7-1.4-10.1-4.1-2.4-2.7-3.6-6.3-3.6-10.7v-.6c0-4.3 1.2-7.9 3.6-10.6 2.4-2.8 5.8-4.1 10-4.1 4.3 0 7.6 1.4 10.1 4.1 2.4 2.8 3.6 6.3 3.6 10.6v.6z" class="st0"/>
  <path d="M460.4 87c-2 0-3.5.8-4.4 2.4-.9 1.6-1.4 3.7-1.4 6.3v.6c0 2.6.5 4.8 1.4 6.4.9 1.6 2.4 2.4 4.5 2.4 2 0 3.5-.8 4.4-2.4.9-1.6 1.4-3.7 1.4-6.4v-.6c0-2.6-.5-4.7-1.4-6.3-.9-1.6-2.4-2.4-4.5-2.4M196 87c-2 0-3.5.8-4.4 2.4-.9 1.6-1.4 3.7-1.4 6.3v.6c0 2.6.5 4.8 1.4 6.4.9 1.6 2.4 2.4 4.5 2.4 2 0 3.5-.8 4.4-2.4.9-1.6 1.4-3.7 1.4-6.4v-.6c0-2.6-.5-4.7-1.4-6.3-1-1.6-2.5-2.4-4.5-2.4m130.6 17.4c.8.4 1.9.6 3.1.6 1.9 0 3.3-.7 4.2-2.2.9-1.5 1.3-3.5 1.3-6v-.6c0-2.7-.5-4.9-1.4-6.6-.9-1.7-2.3-2.5-4.2-2.5-1.2 0-2.2.2-3 .7-.8.5-1.5 1.2-2 2.1v12.7c.5.8 1.2 1.4 2 1.8m164.3 0c.8.4 1.9.6 3.1.6 1.9 0 3.3-.7 4.2-2.2.9-1.5 1.3-3.5 1.3-6v-.6c0-2.7-.5-4.9-1.4-6.6-.9-1.7-2.3-2.5-4.2-2.5-1.2 0-2.2.2-3 .7-.8.5-1.5 1.2-2 2.1v12.7c.5.8 1.2 1.4 2 1.8M118.2 77.8s0-.1 0 0V54.2c0-.2-.1-.5-.3-.6l-11.9-8V19.2c0-.2-.1-.5-.3-.6L81.8 2.9h-.5L67.5 13 47.8.1c-.3-.2-.6-.2-.8 0l-22.7 17c-.2.1-.3.4-.3.6v5.2L.3 40.7c-.2.2-.3.4-.3.6v23.5s0 .1.1.1v.1l.1.1s.1 0 .1.1l13.4 9v27s0 .1.1.1l.1.1h.1l24 15.9c.1.1.3.1.4.1.2 0 .3 0 .4-.1L52.6 107l19.9 13.1c.1.1.3.1.4.1.2 0 .3 0 .4-.1l22.6-16.8c.1-.1.2-.2.2-.4v-8.2L118 78.2l.1-.1s0-.1.1-.1v-.2m-1.4-23.2v21.6l-12.4-7.7 1.3-1 .1-.1v-20l11 7.2zM83 82.6L60.6 67.7l20.8-15.6L104 67 83 82.6zm-57.2 4.9l21.3-15.9 22.4 14.7-21.2 15.9-22.5-14.7zm78.8-21.9l-6.2-4.1-16.3-10.7V28.9l22.4 15.3v21.4zm-79.3 15v-16l21.1-15.7v21.6L25.3 86.1v-5.5zm22.2-33.8c0-.1 0-.1 0 0-.1 0-.1-.1-.1-.1H47s-.1 0-.1.1l-10.7 8-11.1-7 21.2-15.7 23.6 14.5-10.4 7.8-12-7.6zm22.7-22.6v21L46.8 30.8V8.6l23.4 15.6zM45.3 8.8v22.1l-21 15.5V24.6l21-15.8zM23.7 48.6l11.1 7-10.7 8c-.2.1-.3.4-.3.6v15L2 64.6l21.7-16zm24.1 21.8V48.7l10.7 6.9v12.3s0 .1.1.1c0 0 0 .1.1.1l.1.1L70 75.7V85L47.8 70.4zm56.8-27.9L82.1 27.3V4.9l22.4 14.8v22.8zM62.2 17.1L47.8 7.6V1.9L66.3 14l-4.1 3.1zM23 25.5v21.8L1.5 63.2V41.7L23 25.5zm15.3 90.3L15.7 101l13-9.7 22.5 14.8-12.9 9.7zm34.6 2.7L49.4 103l21.2-15.9 23.6 15.5-21.3 15.9zm21.9-17.2L71.3 85.8v-9.2l11.3 7.5c.1.1.3.1.4.1.2 0 .3 0 .4-.1l9.1-6.7 2.2 2.2v21.7zM96 78.7l-2.3-2.2 9.4-6.9 13.1 8.1-20 15.2V79.2c0-.2 0-.4-.2-.5" class="st0"/>
</svg>
