<?xml version="1.0" encoding="utf-8"?>
<!-- Generator: Adobe Illustrator 20.1.0, SVG Export Plug-In . SVG Version: 6.00 Build 0)  -->
<svg version="1.1" id="Layer_1" xmlns="http://www.w3.org/2000/svg" xmlns:xlink="http://www.w3.org/1999/xlink" x="0px" y="0px"
	 viewBox="0 0 9.6 19" style="enable-background:new 0 0 9.6 19;" xml:space="preserve">
<style type="text/css">
	.st0{fill:#444F71;}
</style>
<g>
	<path class="st0" d="M5.7,1.1c0.1,0.1,0.2,0.1,0.2,0.2l0.3-0.3C6.1,0.9,6,0.8,5.9,0.8L5.7,1.1z"/>
	<path class="st0" d="M5.7,15.7l0.2,0.3C6,16,6.1,15.9,6.2,15.9l-0.3-0.3C5.8,15.6,5.8,15.7,5.7,15.7z"/>
	<path class="st0" d="M6.6,14.9l0.3,0.3C7,15.1,7.1,15,7.1,14.9l-0.3-0.3C6.8,14.7,6.7,14.8,6.6,14.9z"/>
	<path class="st0" d="M6.6,1.9C6.7,2,6.8,2.1,6.8,2.1l0.3-0.3C7.1,1.8,7,1.7,6.9,1.6L6.6,1.9z"/>
	<path class="st0" d="M4.6,0.3c0.1,0,0.2,0.1,0.3,0.2l0.2-0.3C5,0.1,4.9,0.1,4.8,0L4.6,0.3z"/>
	<path class="st0" d="M2.3,17.4l0.1,0.4c0.1,0,0.2-0.1,0.3-0.1l-0.1-0.4C2.5,17.4,2.4,17.4,2.3,17.4z"/>
	<path class="st0" d="M3.5,17l0.2,0.4c0.1,0,0.2-0.1,0.3-0.1l-0.2-0.4C3.7,17,3.6,17,3.5,17z"/>
	<path class="st0" d="M4.6,16.5l0.2,0.3c0.1-0.1,0.2-0.1,0.3-0.2l-0.2-0.3C4.8,16.4,4.7,16.4,4.6,16.5z"/>
	<path class="st0" d="M7.5,13.9l0.3,0.2C7.8,14.1,7.9,14,8,13.9l-0.3-0.2C7.6,13.8,7.5,13.8,7.5,13.9z"/>
	<path class="st0" d="M9.2,7.9l0.4,0c0-0.1,0-0.2,0-0.3l-0.4,0C9.2,7.7,9.2,7.8,9.2,7.9z"/>
	<path class="st0" d="M9,10.5l0.4,0.1c0-0.1,0-0.2,0.1-0.3l-0.4-0.1C9.1,10.3,9,10.4,9,10.5z"/>
	<path class="st0" d="M9.1,5.3C9.1,5.2,9.1,5.1,9,5L8.7,5.1c0,0.1,0.1,0.2,0.1,0.3L9.1,5.3z"/>
	<path class="st0" d="M9.2,9.2l0.4,0c0-0.1,0-0.2,0-0.3l-0.4,0C9.2,9,9.2,9.1,9.2,9.2z"/>
	<path class="st0" d="M9.1,6.7l0.4-0.1c0-0.1,0-0.2-0.1-0.3L9,6.4C9,6.5,9.1,6.6,9.1,6.7z"/>
	<path class="st0" d="M8.7,11.7L9,11.8c0-0.1,0.1-0.2,0.1-0.3l-0.4-0.1C8.7,11.5,8.7,11.6,8.7,11.7z"/>
	<path class="st0" d="M7.5,2.9C7.5,3,7.6,3.1,7.6,3.1L8,2.9C7.9,2.8,7.8,2.7,7.8,2.7L7.5,2.9z"/>
	<path class="st0" d="M8.1,4c0,0.1,0.1,0.2,0.1,0.3l0.4-0.2c0-0.1-0.1-0.2-0.1-0.3L8.1,4z"/>
	<path class="st0" d="M8.1,12.8L8.5,13c0-0.1,0.1-0.2,0.1-0.3l-0.4-0.2C8.2,12.7,8.2,12.8,8.1,12.8z"/>
</g>
<polygon class="st0" points="2,16.7 1.1,17.6 0.3,16.7 0,17 0.9,17.9 0,18.7 0.3,19 1.1,18.1 2,19 2.3,18.7 1.4,17.9 2.3,17 "/>
</svg>
