<?xml version="1.0" encoding="utf-8"?>
<!-- Generator: Adobe Illustrator 20.1.0, SVG Export Plug-In . SVG Version: 6.00 Build 0)  -->
<svg version="1.1" id="Layer_1" xmlns="http://www.w3.org/2000/svg" xmlns:xlink="http://www.w3.org/1999/xlink" x="0px" y="0px"
	 viewBox="0 0 151.7 300" style="enable-background:new 0 0 151.7 300;" xml:space="preserve">
<style type="text/css">
	.st0{fill:#444F71;}
</style>
<g>
	<path class="st0" d="M89.2,16.9c1.2,1,2.4,2,3.6,3l4.1-4.8c-1.2-1-2.5-2.1-3.8-3.1L89.2,16.9z"/>
	<path class="st0" d="M89,249.8l3.9,5c1.3-1,2.6-2,3.8-3.1l-4.1-4.8C91.4,247.8,90.2,248.8,89,249.8z"/>
	<path class="st0" d="M104,236.2l4.6,4.4c1.1-1.2,2.2-2.3,3.3-3.5l-4.7-4.3C106.1,233.9,105.1,235.1,104,236.2z"/>
	<path class="st0" d="M104.1,30.5c1.1,1.1,2.2,2.3,3.2,3.4l4.7-4.3c-1.1-1.2-2.2-2.4-3.3-3.6L104.1,30.5z"/>
	<path class="st0" d="M72.5,5.5c1.3,0.8,2.7,1.6,4,2.4l3.4-5.4c-1.4-0.9-2.8-1.7-4.2-2.5L72.5,5.5z"/>
	<path class="st0" d="M35,276.7l1.6,6.1c1.6-0.4,3.1-0.9,4.7-1.3l-1.8-6.1C38,275.9,36.5,276.3,35,276.7z"/>
	<path class="st0" d="M54.2,270.3l2.4,5.9c1.5-0.6,3-1.3,4.5-1.9l-2.6-5.8C57.1,269,55.6,269.6,54.2,270.3z"/>
	<path class="st0" d="M72.3,261.2l3.2,5.5c1.4-0.8,2.8-1.7,4.2-2.5l-3.4-5.4C75,259.6,73.6,260.4,72.3,261.2z"/>
	<path class="st0" d="M117,220.7l5.1,3.7c1-1.3,1.9-2.6,2.8-4l-5.2-3.6C118.9,218.2,118,219.5,117,220.7z"/>
	<path class="st0" d="M145.3,125.6l6.4-0.3c-0.1-1.6-0.2-3.3-0.3-4.9L145,121C145.2,122.5,145.3,124.1,145.3,125.6z"/>
	<path class="st0" d="M141.9,165.9l6.2,1.4c0.3-1.6,0.7-3.2,1-4.8l-6.2-1.2C142.6,162.8,142.3,164.3,141.9,165.9z"/>
	<path class="st0" d="M143.8,83.9c-0.5-1.6-1.1-3.1-1.7-4.6l-5.9,2.3c0.6,1.4,1.1,2.9,1.6,4.4L143.8,83.9z"/>
	<path class="st0" d="M145,145.8l6.3,0.6c0.1-1.6,0.2-3.2,0.3-4.9l-6.4-0.3C145.2,142.8,145.1,144.3,145,145.8z"/>
	<path class="st0" d="M142.9,105.5l6.2-1.2c-0.3-1.6-0.6-3.2-1-4.8L142,101C142.3,102.5,142.6,104,142.9,105.5z"/>
	<path class="st0" d="M136.2,185.2l5.9,2.2c0.6-1.5,1.1-3,1.6-4.6l-6-2.1C137.2,182.3,136.7,183.8,136.2,185.2z"/>
	<path class="st0" d="M117.1,46c0.9,1.3,1.8,2.5,2.7,3.8l5.2-3.6c-0.9-1.3-1.9-2.7-2.8-4L117.1,46z"/>
	<path class="st0" d="M127.9,63.1c0.7,1.4,1.5,2.8,2.2,4.2l5.7-2.9c-0.7-1.4-1.5-2.9-2.2-4.3L127.9,63.1z"/>
	<path class="st0" d="M127.8,203.6l5.6,3c0.8-1.4,1.5-2.9,2.2-4.3l-5.7-2.9C129.3,200.9,128.5,202.3,127.8,203.6z"/>
	<polygon class="st0" points="29.2,266.6 16.7,279.2 4.1,266.6 0,270.8 12.5,283.3 0,295.9 4.1,300 16.7,287.5 29.2,300 33.4,295.9 
		20.8,283.3 33.4,270.8 	"/>
</g>
</svg>
