<svg fill="#b2c0e7" xmlns="http://www.w3.org/2000/svg" viewBox="0 0 12.6 43.81">
  <path d="M.45.54a1.489 1.489 0 0 0 .16 2.1l8.2 7.04-8.23 6.99a1.467 1.467 0 0 0-.53 1.13 1.5 1.5 0 0 0 .52 1.14l8.2 7.05-8.24 6.99A1.488 1.488 0 0 0 0 34.12a1.737 1.737 0 0 0 .05.39 1.455 1.455 0 0 0 .47.74l9.53 8.18a1.489228 1.489228 0 0 0 1.94-2.26l-8.2-7.04 8.24-7a1.491 1.491 0 0 0 .52-1.13 1.463 1.463 0 0 0-.52-1.14l-8.19-7.04 8.23-7a1.452 1.452 0 0 0 .53-1.13 1.475 1.475 0 0 0-.52-1.13L2.55.38a1.481 1.481 0 0 0-2.1.16z" class="cls-1"/>
</svg>
